<svg width="37" height="39" viewBox="0 0 37 39" fill="none" xmlns="http://www.w3.org/2000/svg">
<ellipse cx="18.5" cy="19.2303" rx="18.5" ry="19.2303" fill="#00A3FF"/>
<path d="M17.8356 18.9706C20.3128 18.9706 22.3209 16.9625 22.3209 14.4853C22.3209 12.0081 20.3128 10 17.8356 10C15.3584 10 13.3503 12.0081 13.3503 14.4853C13.3503 16.9625 15.3584 18.9706 17.8356 18.9706Z" stroke="black" stroke-width="1.79413"/>
<path d="M22.3209 20.7648H22.6364C23.9936 20.7648 25.1384 21.7754 25.3068 23.1222L25.6571 25.9246C25.791 26.9954 24.956 27.9413 23.8768 27.9413H11.7944C10.7152 27.9413 9.88027 26.9954 10.0141 25.9246L10.3644 23.1222C10.5328 21.7754 11.6776 20.7648 13.0348 20.7648H13.3503" stroke="black" stroke-width="1.79413" stroke-linecap="round" stroke-linejoin="round"/>
</svg>
